dump.vcd
$date
	Sun Aug 28 16:27:47 2022
$end

$version
	Synopsys VCS version S-2021.09
$end

$timescale
	1ns
$end

$comment Csum: 1 c4db5aec0ac45d59 $end


$scope module $unit $end
$upscope $end


$scope module tb $end

$scope begin unnamed$$_vcs_3 $end
$upscope $end


$scope begin unnamed$$_vcs_0 $end
$upscope $end


$scope begin unnamed$$_vcs_1 $end
$upscope $end


$scope begin unnamed$$_vcs_2 $end
$upscope $end


$scope module vif $end
$var reg 1 ! rst $end
$var reg 1 " clk $end
$var reg 1 # wren $end
$var reg 1 $ rden $end
$var reg 8 % data_in [7:0] $end
$var reg 8 & data_out [7:0] $end
$var reg 1 ' full $end
$var reg 1 ( empty $end
$upscope $end


$scope module UUT $end
$var wire 1 ) rst $end
$var wire 1 * clk $end
$var wire 1 + wren $end
$var wire 1 , rden $end
$var wire 8 - data_in [7:0] $end
$var reg 8 . data_out [7:0] $end
$var wire 1 / full $end
$var wire 1 0 empty $end
$var reg 5 1 rdptr [4:0] $end
$var reg 5 2 wrptr [4:0] $end

$scope begin unnamed$$_0 $end
$upscope $end

$upscope $end

$upscope $end

$enddefinitions $end

#0
$dumpvars
bxxxxxxxx &
b00000000 %
bxxxxxxxx .
bxxxxx 1
bxxxxx 2
b00000000 -
0"
x(
x'
0$
1!
0#
0*
x0
x/
0,
1)
0+
$end
#10
1"
1*
b00000000 .
b00000000 &
b00000 1
b00000 2
10
1(
0/
0'
#20
0"
0*
#30
1"
1*
#40
0"
0*
#50
1"
1*
#60
0"
0*
#70
1"
1*
#80
0"
0*
#90
1"
1*
0!
0)
1#
1+
b00000100 %
b00000100 -
#100
0"
0*
#110
1"
1*
#120
0"
0*
#130
1"
1*
1$
1,
0#
0+
b00000010 %
b00000010 -
#140
0"
0*
#150
1"
1*
b00001 1
00
0(
#160
0"
0*
#170
1"
1*
b00010 1
0$
0,
1#
1+
#180
0"
0*
#190
1"
1*
b00001 2
#200
0"
0*
#210
1"
1*
b00010 2
10
1(
1$
1,
0#
0+
b00000100 %
b00000100 -
#220
0"
0*
#230
1"
1*
b00011 1
00
0(
#240
0"
0*
#250
1"
1*
b00100 1
0$
0,
1#
1+
#260
0"
0*
#270
1"
1*
b00011 2
#280
0"
0*
#290
1"
1*
b00100 2
10
1(
1$
1,
0#
0+
b00000010 %
b00000010 -
#300
0"
0*
#310
1"
1*
b00101 1
00
0(
#320
0"
0*
#330
1"
1*
b00110 1
b00000011 %
b00000011 -
#340
0"
0*
#350
1"
1*
b00111 1
#360
0"
0*
#370
1"
1*
b01000 1
0$
0,
1#
1+
#380
0"
0*
#390
1"
1*
b00101 2
#400
0"
0*
#410
1"
1*
b00110 2
b00000100 %
b00000100 -
#420
0"
0*
#430
1"
1*
b00111 2
#440
0"
0*
#450
1"
1*
b01000 2
10
1(
1$
1,
0#
0+
b00000011 %
b00000011 -
#460
0"
0*
#470
1"
1*
b01001 1
00
0(
#480
0"
0*
#490
1"
1*
b01010 1
0$
0,
1#
1+
#500
0"
0*
#510
1"
1*
b01001 2
#520
0"
0*
#530
1"
1*
b01010 2
10
1(
b00000100 %
b00000100 -
#540
0"
0*
#550
1"
1*
#560
0"
0*
#570
1"
1*
1$
1,
0#
0+
b00000011 %
b00000011 -
#580
0"
0*
#590
1"
1*
b01011 1
00
0(
#600
0"
0*
#610
1"
1*
b01100 1
0$
0,
1#
1+
b00000010 %
b00000010 -
#620
0"
0*
#630
1"
1*
b01011 2
#640
0"
0*
#650
1"
1*
b01100 2
10
1(
1$
1,
0#
0+
b00000011 %
b00000011 -
#660
0"
0*
#670
1"
1*
b01101 1
00
0(
#680
0"
0*
#690
1"
1*
b01110 1
b00000010 %
b00000010 -
#700
0"
0*
#710
1"
1*
b01111 1
#720
0"
0*
#730
1"
1*
b10000 1
b00000100 %
b00000100 -
#740
0"
0*
#750
1"
1*
b10001 1
#760
0"
0*
#770
1"
1*
b10010 1
0$
0,
1#
1+
#780
0"
0*
#790
1"
1*
b01101 2
#800
0"
0*
#810
1"
1*
b01110 2
b00000010 %
b00000010 -
#820
0"
0*
#830
1"
1*
b01111 2
#840
0"
0*
#850
1"
1*
b10000 2
b00000011 %
b00000011 -
#860
0"
0*
#870
1"
1*
b10001 2
#880
0"
0*
#890
1"
1*
b10010 2
10
1(
1$
1,
0#
0+
b00000100 %
b00000100 -
#900
0"
0*
#910
1"
1*
b10011 1
00
0(
#920
0"
0*
#930
1"
1*
b10100 1
0$
0,
1#
1+
b00000011 %
b00000011 -
#940
0"
0*
#950
1"
1*
b10011 2
#960
0"
0*
#970
1"
1*
b10100 2
10
1(
b00000010 %
b00000010 -
